n,pypy_time,python_time
1000,3.789,5.607
2000,11.27,19.691
3000,20.377,42.418
4000,37.309,91.948
5000,53.354,115.964
6000,76.884,167.754
7000,106.411,235.231
8000,135.084,295.345
9000,171.4,373.866
10000,223.325,467.497
15616,548.275,1114.459
